Suite/Test/Step Name,Browser,Description,Start time,End time,Duration,Status
FirstTest,Firefox 60.0,,2018-06-05 10:13:29,2018-06-05 10:13:40,11.247s,PASSED
,,,,,,
Test Cases/ExecuteAutomationTC,Firefox 60.0,,2018-06-05 10:13:30,2018-06-05 10:13:40,10.632s,PASSED
openBrowser,Firefox 60.0,,2018-06-05 10:13:30,2018-06-05 10:13:35,5.311s,PASSED
navigateToUrl,Firefox 60.0,,2018-06-05 10:13:35,2018-06-05 10:13:36,1.112s,PASSED
setText,Firefox 60.0,,2018-06-05 10:13:36,2018-06-05 10:13:37,0.246s,PASSED
setText,Firefox 60.0,,2018-06-05 10:13:37,2018-06-05 10:13:37,0.106s,PASSED
click,Firefox 60.0,,2018-06-05 10:13:37,2018-06-05 10:13:37,0.360s,PASSED
selectOptionByValue,Firefox 60.0,,2018-06-05 10:13:37,2018-06-05 10:13:38,0.424s,PASSED
setText,Firefox 60.0,,2018-06-05 10:13:38,2018-06-05 10:13:38,0.076s,PASSED
setText,Firefox 60.0,,2018-06-05 10:13:38,2018-06-05 10:13:38,0.073s,PASSED
click,Firefox 60.0,,2018-06-05 10:13:38,2018-06-05 10:13:38,0.237s,PASSED
doubleClick,Firefox 60.0,,2018-06-05 10:13:38,2018-06-05 10:13:38,0.197s,PASSED
click,Firefox 60.0,,2018-06-05 10:13:38,2018-06-05 10:13:39,0.547s,PASSED
click,Firefox 60.0,,2018-06-05 10:13:39,2018-06-05 10:13:39,0.300s,PASSED
click,Firefox 60.0,,2018-06-05 10:13:39,2018-06-05 10:13:40,0.655s,PASSED
click,Firefox 60.0,,2018-06-05 10:13:40,2018-06-05 10:13:40,0.240s,PASSED
closeBrowser,Firefox 60.0,,2018-06-05 10:13:40,2018-06-05 10:13:40,0.247s,PASSED
